Chapitre 6 Manipuler des données dans R | Data Science avec R
…
Maintenant, déclarons cet objet comme un tibble.

adm3_pop_2009 <- as_tibble(adm3_pop_2009)

Revoyons la classe.

class(adm3_pop_2009)

## [1] "tbl_df"     "tbl"        "data.frame"

La classe a changé, ou plutôt elle s’est consolidée. De nouvelles caractéristiques ont été ajoutées à data.frame. Maintenant, imprimons le jeu de données lui-même.

adm3_pop_2009

## # A tibble: 703 x 9
##       id admin0_nom admin1_nom admin2_nom admin3_nom annee homme femme
##    <int> <fct>      <fct>      <fct>      <fct>      <int> <dbl> <int>
##  1     1 Mali       Kayes      Kayes      Bangassi    2009  6123  5974
##  2     2 Mali       Kayes      Kayes      Colimbine   2009  6144  6353
##  3     3 Mali       Kayes      Kayes      Diamou      2009  7115  7015
##  4     4 Mali       Kayes      Kayes      Djelebou    2009 11466 12091
##  5     5 Mali       Kayes      Kayes      Faleme      2009  5141  5017
##  6     6 Mali       Kayes      Kayes      Fegui       2009  1999  1934
##  7     7 Mali       Kayes      Kayes      Gory Gope~  2009  3939  3927
##  8     8 Mali       Kayes      Kayes      Goumera     2009  1918  1903
##  9     9 Mali       Kayes      Kayes      Guidimaka~  2009  9798 10234
## 10    10 Mali       Kayes      Kayes      Hawa Demb~  2009  3406  3445
## # ... with 693 more rows, and 1 more variable: source <fct>
…
# Classe
class(adm3_pop_2009)

## [1] "spec_tbl_df" "tbl_df"      "tbl"         "data.frame"

# Impression
adm3_pop_2009

## # A tibble: 703 x 9
##       id admin0_nom admin1_nom admin2_nom admin3_nom annee homme femme
##    <dbl> <chr>      <chr>      <chr>      <chr>      <dbl> <dbl> <dbl>
##  1     1 Mali       Kayes      Kayes      Bangassi    2009  6123  5974
##  2     2 Mali       Kayes      Kayes      Colimbine   2009  6144  6353
##  3     3 Mali       Kayes      Kayes      Diamou      2009  7115  7015
##  4     4 Mali       Kayes      Kayes      Djelebou    2009 11466 12091
##  5     5 Mali       Kayes      Kayes      Faleme      2009  5141  5017
##  6     6 Mali       Kayes      Kayes      Fegui       2009  1999  1934
##  7     7 Mali       Kayes      Kayes      Gory Gope~  2009  3939  3927
##  8     8 Mali       Kayes      Kayes      Goumera     2009  1918  1903
##  9     9 Mali       Kayes      Kayes      Guidimaka~  2009  9798 10234
## 10    10 Mali       Kayes      Kayes      Hawa Demb~  2009  3406  3445
## # ... with 693 more rows, and 1 more variable: source <chr>
…
# Impression
adm3_pop_2009

## # A tibble: 703 x 9
##       id admin0_nom admin1_nom admin2_nom admin3_nom annee homme femme
##    <dbl> <chr>      <chr>      <chr>      <chr>      <dbl> <dbl> <dbl>
##  1     1 Mali       Kayes      Kayes      Bangassi    2009  6123  5974
##  2     2 Mali       Kayes      Kayes      Colimbine   2009  6144  6353
##  3     3 Mali       Kayes      Kayes      Diamou      2009  7115  7015
##  4     4 Mali       Kayes      Kayes      Djelebou    2009 11466 12091
##  5     5 Mali       Kayes      Kayes      Faleme      2009  5141  5017
##  6     6 Mali       Kayes      Kayes      Fegui       2009  1999  1934
##  7     7 Mali       Kayes      Kayes      Gory Gope~  2009  3939  3927
##  8     8 Mali       Kayes      Kayes      Goumera     2009  1918  1903
##  9     9 Mali       Kayes      Kayes      Guidimaka~  2009  9798 10234
## 10    10 Mali       Kayes      Kayes      Hawa Demb~  2009  3406  3445
## # ... with 693 more rows, and 1 more variable: source <chr>

Maintenant, passons d’abord par les méthodes de R-base, comme nous avons vu avant.

adm3_pop_2009[ , c("homme", "femme")]

## # A tibble: 703 x 2
##    homme femme
##    <dbl> <dbl>
##  1  6123  5974
##  2  6144  6353
##  3  7115  7015
##  4 11466 12091
##  5  5141  5017
##  6  1999  1934
##  7  3939  3927
##  8  1918  1903
##  9  9798 10234
## 10  3406  3445
## # ... with 693 more rows

ou

subset(x = adm3_pop_2009, select = c(homme, femme))

## # A tibble: 703 x 2
##    homme femme
##    <dbl> <dbl>
##  1  6123  5974
##  2  6144  6353
##  3  7115  7015
##  4 11466 12091
##  5  5141  5017
##  6  1999  1934
##  7  3939  3927
##  8  1918  1903
##  9  9798 10234
## 10  3406  3445
## # ... with 693 more rows

Dans dplyr, l’on utilise pour ce faire la fonction select qui va se rapprocher de la fonction subset de R-base.

select(adm3_pop_2009, homme, femme)

## # A tibble: 703 x 2
##    homme femme
##    <dbl> <dbl>
##  1  6123  5974
##  2  6144  6353
##  3  7115  7015
##  4 11466 12091
##  5  5141  5017
##  6  1999  1934
##  7  3939  3927
##  8  1918  1903
##  9  9798 10234
## 10  3406  3445
## # ... with 693 more rows

Le premier argument de la fonction est le jeu de données. Ceci est général pour toutes les fonctions de dplyr. Ensuite viennent les autres arguments. Ici, nous avons énuméré les variables qui nous intéressent. La fonction select présente un grande simplicité par rapport aux alternatives de R-base. A l’instar de subset, elle ne requiert pas que les noms de variables soient entre griffes (" "). Aussi, elle ne requiert pas que l’on spécifie le nombre d’observations à afficher, que l’input soit un data frame ou un tibble. Avec les fonctions de R-base, quand l’input est une tibble, l’affichage est limité à dix observations. Toutefois, cette règle est violée quand l’input est un data frame.

Il y a un autre avantage avec select, mais qui est commun au tidyverse tout entier. C’est l’opérateur: %>% que l’on appelle pipe opérator. Ce signe permet d’ordonner les lignes de commandes de sorte à rendre compte du séquençage des opérations. Nous savons ici que nous partons d’un jeu de données, adm3_pop_2009, que nous soumettons à une opération. Avec %>%, nous verbalisons cette idée en faisant de l’input de départ la première ligne.

adm3_pop_2009 %>% 
  select(homme, femme)

## # A tibble: 703 x 2
##    homme femme
##    <dbl> <dbl>
##  1  6123  5974
##  2  6144  6353
##  3  7115  7015
##  4 11466 12091
##  5  5141  5017
##  6  1999  1934
##  7  3939  3927
##  8  1918  1903
##  9  9798 10234
## 10  3406  3445
## # ... with 693 more rows

Avec cette nouvelle écriture, nous obtenons la même résultat, mais la lisibilité est améliorée. A partir de maintenant, nous allons progressivement adoptée cette façon d’écrire les opérations.

Un autre avantage de select est de permettre la sélection de plusieurs variables à travers leur communalité. Dans notre jeu, nous avons trois variables qui portent toutes le terme admin comme préfixe. Plutôt que de les sélectionner une à une nous pouvons les appeler toutes ensembles. Commençons par R-base.

names_df <- names(adm3_pop_2009)
select_df <- startsWith(x = names_df, prefix = "adm")
adm3_pop_2009[, select_df]

## # A tibble: 703 x 4
##    admin0_nom admin1_nom admin2_nom admin3_nom          
##    <chr>      <chr>      <chr>      <chr>               
##  1 Mali       Kayes      Kayes      Bangassi            
##  2 Mali       Kayes      Kayes      Colimbine           
##  3 Mali       Kayes      Kayes      Diamou              
##  4 Mali       Kayes      Kayes      Djelebou            
##  5 Mali       Kayes      Kayes      Faleme              
##  6 Mali       Kayes      Kayes      Fegui               
##  7 Mali       Kayes      Kayes      Gory Gopela         
##  8 Mali       Kayes      Kayes      Goumera             
##  9 Mali       Kayes      Kayes      Guidimakan Keri Kaff
## 10 Mali       Kayes      Kayes      Hawa Dembaya        
## # ... with 693 more rows

Cette opération nous a pris trois lignes différents. Avec select, nous en faisons juste de deux lignes séquencées (même une si l’on veut).

adm3_pop_2009 %>% 
  select(starts_with("adm"))

## # A tibble: 703 x 4
##    admin0_nom admin1_nom admin2_nom admin3_nom          
##    <chr>      <chr>      <chr>      <chr>               
##  1 Mali       Kayes      Kayes      Bangassi            
##  2 Mali       Kayes      Kayes      Colimbine           
##  3 Mali       Kayes      Kayes      Diamou              
##  4 Mali       Kayes      Kayes      Djelebou            
##  5 Mali       Kayes      Kayes      Faleme              
##  6 Mali       Kayes      Kayes      Fegui               
##  7 Mali       Kayes      Kayes      Gory Gopela         
##  8 Mali       Kayes      Kayes      Goumera             
##  9 Mali       Kayes      Kayes      Guidimakan Keri Kaff
## 10 Mali       Kayes      Kayes      Hawa Dembaya        
## # ... with 693 more rows

L’on peut faire la même chose avec les suffixes…

adm3_pop_2009 %>% 
  select(ends_with("nom"))

## # A tibble: 703 x 4
##    admin0_nom admin1_nom admin2_nom admin3_nom          
##    <chr>      <chr>      <chr>      <chr>               
##  1 Mali       Kayes      Kayes      Bangassi            
##  2 Mali       Kayes      Kayes      Colimbine           
##  3 Mali       Kayes      Kayes      Diamou              
##  4 Mali       Kayes      Kayes      Djelebou            
##  5 Mali       Kayes      Kayes      Faleme              
##  6 Mali       Kayes      Kayes      Fegui               
##  7 Mali       Kayes      Kayes      Gory Gopela         
##  8 Mali       Kayes      Kayes      Goumera             
##  9 Mali       Kayes      Kayes      Guidimakan Keri Kaff
## 10 Mali       Kayes      Kayes      Hawa Dembaya        
## # ... with 693 more rows

…ou chercher des termes indépendemment de leur position dans le nom des variables.

adm3_pop_2009 %>% 
  select(contains("nom"))

## # A tibble: 703 x 4
##    admin0_nom admin1_nom admin2_nom admin3_nom          
##    <chr>      <chr>      <chr>      <chr>               
##  1 Mali       Kayes      Kayes      Bangassi            
##  2 Mali       Kayes      Kayes      Colimbine           
##  3 Mali       Kayes      Kayes      Diamou              
##  4 Mali       Kayes      Kayes      Djelebou            
##  5 Mali       Kayes      Kayes      Faleme              
##  6 Mali       Kayes      Kayes      Fegui               
##  7 Mali       Kayes      Kayes      Gory Gopela         
##  8 Mali       Kayes      Kayes      Goumera             
##  9 Mali       Kayes      Kayes      Guidimakan Keri Kaff
## 10 Mali       Kayes      Kayes      Hawa Dembaya        
## # ... with 693 more rows

dplyr contient une variétés de fonctions similaires dont: matches(), num_range(), one_of(), everything(), group_cols(). Avec R, l’on peut aboutir au même résultat en utilisant différentes méthodes. La force de dplyr - et de tidyverse dans une large mesure - est que la méthode est plus économe en écriture de codes et le séquençage bien explicité à l’aide de l’opérateur %>%.

La sélection peut aussi se faire sur la base de l’index des colonnes, c’est-à-dire leur position. Sélectionnons de la deuxième à la cinquième colonne.

# Avec R-base
adm3_pop_2009[, c(2:5)]

## # A tibble: 703 x 4
##    admin0_nom admin1_nom admin2_nom admin3_nom          
##    <chr>      <chr>      <chr>      <chr>               
##  1 Mali       Kayes      Kayes      Bangassi            
##  2 Mali       Kayes      Kayes      Colimbine           
##  3 Mali       Kayes      Kayes      Diamou              
##  4 Mali       Kayes      Kayes      Djelebou            
##  5 Mali       Kayes      Kayes      Faleme              
##  6 Mali       Kayes      Kayes      Fegui               
##  7 Mali       Kayes      Kayes      Gory Gopela         
##  8 Mali       Kayes      Kayes      Goumera             
##  9 Mali       Kayes      Kayes      Guidimakan Keri Kaff
## 10 Mali       Kayes      Kayes      Hawa Dembaya        
## # ... with 693 more rows

# Avec dpylr
adm3_pop_2009 %>% 
  select(2:5)

## # A tibble: 703 x 4
##    admin0_nom admin1_nom admin2_nom admin3_nom          
##    <chr>      <chr>      <chr>      <chr>               
##  1 Mali       Kayes      Kayes      Bangassi            
##  2 Mali       Kayes      Kayes      Colimbine           
##  3 Mali       Kayes      Kayes      Diamou              
##  4 Mali       Kayes      Kayes      Djelebou            
##  5 Mali       Kayes      Kayes      Faleme              
##  6 Mali       Kayes      Kayes      Fegui               
##  7 Mali       Kayes      Kayes      Gory Gopela         
##  8 Mali       Kayes      Kayes      Goumera             
##  9 Mali       Kayes      Kayes      Guidimakan Keri Kaff
## 10 Mali       Kayes      Kayes      Hawa Dembaya        
## # ... with 693 more rows

La même chose peut se faire avec le nom des variables.

# Avec R-base
adm3_pop_2009[, c("admin0_nom", "admin1_nom", "admin2_nom", "admin3_nom")]

## # A tibble: 703 x 4
##    admin0_nom admin1_nom admin2_nom admin3_nom          
##    <chr>      <chr>      <chr>      <chr>               
##  1 Mali       Kayes      Kayes      Bangassi            
##  2 Mali       Kayes      Kayes      Colimbine           
##  3 Mali       Kayes      Kayes      Diamou              
##  4 Mali       Kayes      Kayes      Djelebou            
##  5 Mali       Kayes      Kayes      Faleme              
##  6 Mali       Kayes      Kayes      Fegui               
##  7 Mali       Kayes      Kayes      Gory Gopela         
##  8 Mali       Kayes      Kayes      Goumera             
##  9 Mali       Kayes      Kayes      Guidimakan Keri Kaff
## 10 Mali       Kayes      Kayes      Hawa Dembaya        
## # ... with 693 more rows

# Avec dplyr
adm3_pop_2009 %>% 
  select(admin0_nom, admin1_nom, admin2_nom, admin3_nom)

## # A tibble: 703 x 4
##    admin0_nom admin1_nom admin2_nom admin3_nom          
##    <chr>      <chr>      <chr>      <chr>               
##  1 Mali       Kayes      Kayes      Bangassi            
##  2 Mali       Kayes      Kayes      Colimbine           
##  3 Mali       Kayes      Kayes      Diamou              
##  4 Mali       Kayes      Kayes      Djelebou            
##  5 Mali       Kayes      Kayes      Faleme              
##  6 Mali       Kayes      Kayes      Fegui               
##  7 Mali       Kayes      Kayes      Gory Gopela         
##  8 Mali       Kayes      Kayes      Goumera             
##  9 Mali       Kayes      Kayes      Guidimakan Keri Kaff
## 10 Mali       Kayes      Kayes      Hawa Dembaya        
## # ... with 693 more rows

L’on peut faire plus simple avec dplyr quand les variables recherchées se suivent.

adm3_pop_2009 %>% 
  select(admin0_nom:admin3_nom)

Comme avec R-base, la sélection peut aussi se faire sur la base de l’exclusion. Imaginez que l’on souhaite exclure les quatre premières variables.

# Avec R-base
adm3_pop_2009[, -c(1:4)]

## # A tibble: 703 x 5
##    admin3_nom           annee homme femme source
##    <chr>                <dbl> <dbl> <dbl> <chr> 
##  1 Bangassi              2009  6123  5974 RGPH  
##  2 Colimbine             2009  6144  6353 RGPH  
##  3 Diamou                2009  7115  7015 RGPH  
##  4 Djelebou              2009 11466 12091 RGPH  
##  5 Faleme                2009  5141  5017 RGPH  
##  6 Fegui                 2009  1999  1934 RGPH  
##  7 Gory Gopela           2009  3939  3927 RGPH  
##  8 Goumera               2009  1918  1903 RGPH  
##  9 Guidimakan Keri Kaff  2009  9798 10234 RGPH  
## 10 Hawa Dembaya          2009  3406  3445 RGPH  
## # ... with 693 more rows

# Avec dplyr
adm3_pop_2009 %>% 
  select(-c(1:4))

## # A tibble: 703 x 5
##    admin3_nom           annee homme femme source
##    <chr>                <dbl> <dbl> <dbl> <chr> 
##  1 Bangassi              2009  6123  5974 RGPH  
##  2 Colimbine             2009  6144  6353 RGPH  
##  3 Diamou                2009  7115  7015 RGPH  
##  4 Djelebou              2009 11466 12091 RGPH  
##  5 Faleme                2009  5141  5017 RGPH  
##  6 Fegui                 2009  1999  1934 RGPH  
##  7 Gory Gopela           2009  3939  3927 RGPH  
##  8 Goumera               2009  1918  1903 RGPH  
##  9 Guidimakan Keri Kaff  2009  9798 10234 RGPH  
## 10 Hawa Dembaya          2009  3406  3445 RGPH  
## # ... with 693 more rows
…
calculer un ratio femme/homme pour chaque commune.

Avec R-base.

# Sélection des variables d'intérêt
pop_df <- adm3_pop_2009[ , c("admin3_nom", "homme", "femme")]

# Création d'une nouvelle variable
pop_df$ratio <- pop_df$femme / pop_df$homme

# Aperçu
pop_df

## # A tibble: 703 x 4
##    admin3_nom           homme femme ratio
##    <chr>                <dbl> <dbl> <dbl>
##  1 Bangassi              6123  5974 0.976
##  2 Colimbine             6144  6353 1.03 
##  3 Diamou                7115  7015 0.986
##  4 Djelebou             11466 12091 1.05 
##  5 Faleme                5141  5017 0.976
##  6 Fegui                 1999  1934 0.967
##  7 Gory Gopela           3939  3927 0.997
##  8 Goumera               1918  1903 0.992
##  9 Guidimakan Keri Kaff  9798 10234 1.04 
## 10 Hawa Dembaya          3406  3445 1.01 
## # ... with 693 more rows

Avec dplyr

adm3_pop_2009 %>% 
  # Sélection des variables d'intérêt
  select(admin3_nom, homme, femme) %>% 
  # Création d'une nouvelle variable
  mutate(ratio = homme/femme)

## # A tibble: 703 x 4
##    admin3_nom           homme femme ratio
##    <chr>                <dbl> <dbl> <dbl>
##  1 Bangassi              6123  5974 1.02 
##  2 Colimbine             6144  6353 0.967
##  3 Diamou                7115  7015 1.01 
##  4 Djelebou             11466 12091 0.948
##  5 Faleme                5141  5017 1.02 
##  6 Fegui                 1999  1934 1.03 
##  7 Gory Gopela           3939  3927 1.00 
##  8 Goumera               1918  1903 1.01 
##  9 Guidimakan Keri Kaff  9798 10234 0.957
## 10 Hawa Dembaya          3406  3445 0.989
## # ... with 693 more rows
…
Avec R-base

# Sélection des variables d'intérêt
pop_df <- adm3_pop_2009[ , c("admin3_nom", "homme", "femme")]

# Création d'une nouvelle variable: numérique
pop_df$total <- pop_df$femme + pop_df$homme

# Création d'une nouvelle variable: catégorielle
pop_df$pop_cat <- ifelse(pop_df$total < 10000, "<10000", ">=10000")

# Aperçu
pop_df

## # A tibble: 703 x 5
##    admin3_nom           homme femme total pop_cat
##    <chr>                <dbl> <dbl> <dbl> <chr>  
##  1 Bangassi              6123  5974 12097 >=10000
##  2 Colimbine             6144  6353 12497 >=10000
##  3 Diamou                7115  7015 14130 >=10000
##  4 Djelebou             11466 12091 23557 >=10000
##  5 Faleme                5141  5017 10158 >=10000
##  6 Fegui                 1999  1934  3933 <10000 
##  7 Gory Gopela           3939  3927  7866 <10000 
##  8 Goumera               1918  1903  3821 <10000 
##  9 Guidimakan Keri Kaff  9798 10234 20032 >=10000
## 10 Hawa Dembaya          3406  3445  6851 <10000 
## # ... with 693 more rows

Avec dplyr

adm3_pop_2009 %>% 
  # Sélection des variables d'intérêt
  select(admin3_nom, homme, femme) %>% 
  # Création d'une nouvelle variable: numérique
  mutate(total = homme + femme) %>%
  # Création d'une nouvelle variable: catégorielle
  mutate(pop_cat = ifelse(total < 10000, "<10000", ">=10000"))

## # A tibble: 703 x 5
##    admin3_nom           homme femme total pop_cat
##    <chr>                <dbl> <dbl> <dbl> <chr>  
##  1 Bangassi              6123  5974 12097 >=10000
##  2 Colimbine             6144  6353 12497 >=10000
##  3 Diamou                7115  7015 14130 >=10000
##  4 Djelebou             11466 12091 23557 >=10000
##  5 Faleme                5141  5017 10158 >=10000
##  6 Fegui                 1999  1934  3933 <10000 
##  7 Gory Gopela           3939  3927  7866 <10000 
##  8 Goumera               1918  1903  3821 <10000 
##  9 Guidimakan Keri Kaff  9798 10234 20032 >=10000
## 10 Hawa Dembaya          3406  3445  6851 <10000 
## # ... with 693 more rows
…
