Chapitre 6 Transformer de données avec dplyr | Data Science avec R
…
Maintenant, déclarons cet objet comme un tibble.

adm3_pop_2009 <- as_tibble(adm3_pop_2009)

Revoyons la classe.

class(adm3_pop_2009)

## [1] "tbl_df"     "tbl"        "data.frame"

La classe a changé, ou plutôt elle s’est consolidée. De nouvelles caractéristiques ont été ajoutées à data.frame. Maintenant, imprimons le jeu de données lui-même.

adm3_pop_2009

## # A tibble: 703 x 9
##       id admin0_nom admin1_nom admin2_nom admin3_nom annee homme femme
##    <int> <fct>      <fct>      <fct>      <fct>      <int> <dbl> <int>
##  1     1 Mali       Kayes      Kayes      Bangassi    2009  6123  5974
##  2     2 Mali       Kayes      Kayes      Colimbine   2009  6144  6353
##  3     3 Mali       Kayes      Kayes      Diamou      2009  7115  7015
##  4     4 Mali       Kayes      Kayes      Djelebou    2009 11466 12091
##  5     5 Mali       Kayes      Kayes      Faleme      2009  5141  5017
##  6     6 Mali       Kayes      Kayes      Fegui       2009  1999  1934
##  7     7 Mali       Kayes      Kayes      Gory Gope~  2009  3939  3927
##  8     8 Mali       Kayes      Kayes      Goumera     2009  1918  1903
##  9     9 Mali       Kayes      Kayes      Guidimaka~  2009  9798 10234
## 10    10 Mali       Kayes      Kayes      Hawa Demb~  2009  3406  3445
## # ... with 693 more rows, and 1 more variable: source <fct>
…
# Chargement du package "readr"
library(readr)

# Importation des données
adm3_pop_2009 <- read_csv(source_donnees)

# Classe
class(adm3_pop_2009)

## [1] "spec_tbl_df" "tbl_df"      "tbl"         "data.frame"

# Impression
adm3_pop_2009

## # A tibble: 703 x 9
##       id admin0_nom admin1_nom admin2_nom admin3_nom annee homme femme
##    <dbl> <chr>      <chr>      <chr>      <chr>      <dbl> <dbl> <dbl>
##  1     1 Mali       Kayes      Kayes      Bangassi    2009  6123  5974
##  2     2 Mali       Kayes      Kayes      Colimbine   2009  6144  6353
##  3     3 Mali       Kayes      Kayes      Diamou      2009  7115  7015
##  4     4 Mali       Kayes      Kayes      Djelebou    2009 11466 12091
##  5     5 Mali       Kayes      Kayes      Faleme      2009  5141  5017
##  6     6 Mali       Kayes      Kayes      Fegui       2009  1999  1934
##  7     7 Mali       Kayes      Kayes      Gory Gope~  2009  3939  3927
##  8     8 Mali       Kayes      Kayes      Goumera     2009  1918  1903
##  9     9 Mali       Kayes      Kayes      Guidimaka~  2009  9798 10234
## 10    10 Mali       Kayes      Kayes      Hawa Demb~  2009  3406  3445
## # ... with 693 more rows, and 1 more variable: source <chr>
…
Comme nous avons vu précédemment, il arrive souvent que l’on veuille sélectionner certaines variables d’un jeu de données. Dans notre cas, supposons que nous sommes seulement intéressés par les chiffres. Il s’agit des colonnes: homme et femme.

Rappelons notre jeu de données.

# Chargement du package "readr"
library(readr)

# Importation des données
adm3_pop_2009 <- read_csv(source_donnees)

# Impression
adm3_pop_2009

## # A tibble: 703 x 9
##       id admin0_nom admin1_nom admin2_nom admin3_nom annee homme femme
##    <dbl> <chr>      <chr>      <chr>      <chr>      <dbl> <dbl> <dbl>
##  1     1 Mali       Kayes      Kayes      Bangassi    2009  6123  5974
##  2     2 Mali       Kayes      Kayes      Colimbine   2009  6144  6353
##  3     3 Mali       Kayes      Kayes      Diamou      2009  7115  7015
##  4     4 Mali       Kayes      Kayes      Djelebou    2009 11466 12091
##  5     5 Mali       Kayes      Kayes      Faleme      2009  5141  5017
##  6     6 Mali       Kayes      Kayes      Fegui       2009  1999  1934
##  7     7 Mali       Kayes      Kayes      Gory Gope~  2009  3939  3927
##  8     8 Mali       Kayes      Kayes      Goumera     2009  1918  1903
##  9     9 Mali       Kayes      Kayes      Guidimaka~  2009  9798 10234
## 10    10 Mali       Kayes      Kayes      Hawa Demb~  2009  3406  3445
## # ... with 693 more rows, and 1 more variable: source <chr>

Maintenant, passons d’abord par les méthodes de R-base, comme nous avons vu avant.

adm3_pop_2009[ , c("homme", "femme")]

## # A tibble: 703 x 2
##    homme femme
##    <dbl> <dbl>
##  1  6123  5974
##  2  6144  6353
##  3  7115  7015
##  4 11466 12091
##  5  5141  5017
##  6  1999  1934
##  7  3939  3927
##  8  1918  1903
##  9  9798 10234
## 10  3406  3445
## # ... with 693 more rows

ou

subset(x = adm3_pop_2009, select = c(homme, femme))

## # A tibble: 703 x 2
##    homme femme
##    <dbl> <dbl>
##  1  6123  5974
##  2  6144  6353
##  3  7115  7015
##  4 11466 12091
##  5  5141  5017
##  6  1999  1934
##  7  3939  3927
##  8  1918  1903
##  9  9798 10234
## 10  3406  3445
## # ... with 693 more rows

Dans dplyr, l’on utilise pour ce faire la fonction select qui va se rapprocher de la fonction subset de R-base.

select(adm3_pop_2009, homme, femme)

## # A tibble: 703 x 2
##    homme femme
##    <dbl> <dbl>
##  1  6123  5974
##  2  6144  6353
##  3  7115  7015
##  4 11466 12091
##  5  5141  5017
##  6  1999  1934
##  7  3939  3927
##  8  1918  1903
##  9  9798 10234
## 10  3406  3445
## # ... with 693 more rows

Le premier argument de la fonction est le jeu de données. Ceci est général pour toutes les fonctions de dplyr. Ensuite viennent les autres arguments. Ici, nous avons énuméré les variables qui nous intéressent. La fonction select présente une grande simplicité par rapport aux alternatives de R-base. A l’instar de subset, elle ne requiert pas que les noms de variables soient entre griffes (" "). Aussi, elle ne requiert pas que l’on spécifie le nombre d’observations à afficher, que l’input soit un data frame ou un tibble. Avec les fonctions de R-base, quand l’input est une tibble, l’affichage est limité à dix observations. Toutefois, cette règle est violée quand l’input est un data.frame.

6.3.1 Sélection simple

Il y a un autre avantage avec select, mais qui est commun au tidyverse tout entier. C’est l’opérateur: %>% que l’on appelle pipe opérator. Ce signe permet d’unir les lignes de codes en chaîne en leur servant de maillon. Il prend l’objet issu d’une ligne de départ ou d’une opération et fournit le résultat comme intrant à la ligne suivante. De ce fait, en l’utilisant, on n’a pas besoin de mettre dans une fonction l’argument spécifique à l’objet intrant. On peut se limiter aux arguments spécifiques à la tâche exécutée par la fonction. Réécrivons l’opération précédente.

adm3_pop_2009 %>% 
  select(homme, femme)

## # A tibble: 703 x 2
##    homme femme
##    <dbl> <dbl>
##  1  6123  5974
##  2  6144  6353
##  3  7115  7015
##  4 11466 12091
##  5  5141  5017
##  6  1999  1934
##  7  3939  3927
##  8  1918  1903
##  9  9798 10234
## 10  3406  3445
## # ... with 693 more rows

Avec %>%, nous verbalisons l’idée que nous partons du jeu de données, adm3_pop_2009, que nous soumettons ensuite à une opération de sélection à travers la fonction select. Nous obtenons le même résultat, mais la lisibilité est améliorée. Le signe %>% nous permet d’ordonner les lignes de codes de sorte à rendre compte du séquençage des opérations. A partir de maintenant, nous allons progressivement adoptée cette façon d’écrire les opérations.

6.3.2 Sélection groupée

Un autre avantage de select est de permettre la sélection de plusieurs variables à travers leur communalité. Dans notre jeu, nous avons trois variables qui portent toutes le terme admin comme préfixe. Plutôt que de les sélectionner une à une nous pouvons les appeler toutes ensembles. Commençons par R-base.

names_df <- names(adm3_pop_2009)
select_df <- startsWith(x = names_df, prefix = "adm")
adm3_pop_2009[, select_df]

## # A tibble: 703 x 4
##    admin0_nom admin1_nom admin2_nom admin3_nom          
##    <chr>      <chr>      <chr>      <chr>               
##  1 Mali       Kayes      Kayes      Bangassi            
##  2 Mali       Kayes      Kayes      Colimbine           
##  3 Mali       Kayes      Kayes      Diamou              
##  4 Mali       Kayes      Kayes      Djelebou            
##  5 Mali       Kayes      Kayes      Faleme              
##  6 Mali       Kayes      Kayes      Fegui               
##  7 Mali       Kayes      Kayes      Gory Gopela         
##  8 Mali       Kayes      Kayes      Goumera             
##  9 Mali       Kayes      Kayes      Guidimakan Keri Kaff
## 10 Mali       Kayes      Kayes      Hawa Dembaya        
## # ... with 693 more rows

Cette opération nous a pris trois lignes différentes. Avec select, nous en faisons juste de deux lignes séquencées (même une si l’on veut).

adm3_pop_2009 %>% 
  select(starts_with("adm"))

## # A tibble: 703 x 4
##    admin0_nom admin1_nom admin2_nom admin3_nom          
##    <chr>      <chr>      <chr>      <chr>               
##  1 Mali       Kayes      Kayes      Bangassi            
##  2 Mali       Kayes      Kayes      Colimbine           
##  3 Mali       Kayes      Kayes      Diamou              
##  4 Mali       Kayes      Kayes      Djelebou            
##  5 Mali       Kayes      Kayes      Faleme              
##  6 Mali       Kayes      Kayes      Fegui               
##  7 Mali       Kayes      Kayes      Gory Gopela         
##  8 Mali       Kayes      Kayes      Goumera             
##  9 Mali       Kayes      Kayes      Guidimakan Keri Kaff
## 10 Mali       Kayes      Kayes      Hawa Dembaya        
## # ... with 693 more rows

L’on peut faire la même chose avec les suffixes…

adm3_pop_2009 %>% 
  select(ends_with("nom"))

## # A tibble: 703 x 4
##    admin0_nom admin1_nom admin2_nom admin3_nom          
##    <chr>      <chr>      <chr>      <chr>               
##  1 Mali       Kayes      Kayes      Bangassi            
##  2 Mali       Kayes      Kayes      Colimbine           
##  3 Mali       Kayes      Kayes      Diamou              
##  4 Mali       Kayes      Kayes      Djelebou            
##  5 Mali       Kayes      Kayes      Faleme              
##  6 Mali       Kayes      Kayes      Fegui               
##  7 Mali       Kayes      Kayes      Gory Gopela         
##  8 Mali       Kayes      Kayes      Goumera             
##  9 Mali       Kayes      Kayes      Guidimakan Keri Kaff
## 10 Mali       Kayes      Kayes      Hawa Dembaya        
## # ... with 693 more rows

…ou chercher des termes indépendemment de leur position dans le nom des variables.

adm3_pop_2009 %>% 
  select(contains("nom"))

## # A tibble: 703 x 4
##    admin0_nom admin1_nom admin2_nom admin3_nom          
##    <chr>      <chr>      <chr>      <chr>               
##  1 Mali       Kayes      Kayes      Bangassi            
##  2 Mali       Kayes      Kayes      Colimbine           
##  3 Mali       Kayes      Kayes      Diamou              
##  4 Mali       Kayes      Kayes      Djelebou            
##  5 Mali       Kayes      Kayes      Faleme              
##  6 Mali       Kayes      Kayes      Fegui               
##  7 Mali       Kayes      Kayes      Gory Gopela         
##  8 Mali       Kayes      Kayes      Goumera             
##  9 Mali       Kayes      Kayes      Guidimakan Keri Kaff
## 10 Mali       Kayes      Kayes      Hawa Dembaya        
## # ... with 693 more rows

dplyr contient une variétés de fonctions similaires dont: matches(), num_range(), one_of(), everything(), group_cols(). Avec R, l’on peut aboutir au même résultat en utilisant différentes méthodes. La force de dplyr - et de tidyverse dans une large mesure - est que la méthode est plus économe en écriture de codes et le séquençage bien explicité à l’aide de l’opérateur %>%.

6.3.3 Index et nom

La sélection peut aussi se faire sur la base de l’index des colonnes, c’est-à-dire leur position. Sélectionnons de la deuxième à la cinquième colonne.

# Avec R-base
adm3_pop_2009[, c(2:5)]

## # A tibble: 703 x 4
##    admin0_nom admin1_nom admin2_nom admin3_nom          
##    <chr>      <chr>      <chr>      <chr>               
##  1 Mali       Kayes      Kayes      Bangassi            
##  2 Mali       Kayes      Kayes      Colimbine           
##  3 Mali       Kayes      Kayes      Diamou              
##  4 Mali       Kayes      Kayes      Djelebou            
##  5 Mali       Kayes      Kayes      Faleme              
##  6 Mali       Kayes      Kayes      Fegui               
##  7 Mali       Kayes      Kayes      Gory Gopela         
##  8 Mali       Kayes      Kayes      Goumera             
##  9 Mali       Kayes      Kayes      Guidimakan Keri Kaff
## 10 Mali       Kayes      Kayes      Hawa Dembaya        
## # ... with 693 more rows

# Avec dpylr
adm3_pop_2009 %>% 
  select(2:5)

## # A tibble: 703 x 4
##    admin0_nom admin1_nom admin2_nom admin3_nom          
##    <chr>      <chr>      <chr>      <chr>               
##  1 Mali       Kayes      Kayes      Bangassi            
##  2 Mali       Kayes      Kayes      Colimbine           
##  3 Mali       Kayes      Kayes      Diamou              
##  4 Mali       Kayes      Kayes      Djelebou            
##  5 Mali       Kayes      Kayes      Faleme              
##  6 Mali       Kayes      Kayes      Fegui               
##  7 Mali       Kayes      Kayes      Gory Gopela         
##  8 Mali       Kayes      Kayes      Goumera             
##  9 Mali       Kayes      Kayes      Guidimakan Keri Kaff
## 10 Mali       Kayes      Kayes      Hawa Dembaya        
## # ... with 693 more rows

La même chose peut se faire avec le nom des variables.

# Avec R-base
adm3_pop_2009[, c("admin0_nom", "admin1_nom", "admin2_nom", "admin3_nom")]

## # A tibble: 703 x 4
##    admin0_nom admin1_nom admin2_nom admin3_nom          
##    <chr>      <chr>      <chr>      <chr>               
##  1 Mali       Kayes      Kayes      Bangassi            
##  2 Mali       Kayes      Kayes      Colimbine           
##  3 Mali       Kayes      Kayes      Diamou              
##  4 Mali       Kayes      Kayes      Djelebou            
##  5 Mali       Kayes      Kayes      Faleme              
##  6 Mali       Kayes      Kayes      Fegui               
##  7 Mali       Kayes      Kayes      Gory Gopela         
##  8 Mali       Kayes      Kayes      Goumera             
##  9 Mali       Kayes      Kayes      Guidimakan Keri Kaff
## 10 Mali       Kayes      Kayes      Hawa Dembaya        
## # ... with 693 more rows

# Avec dplyr
adm3_pop_2009 %>% 
  select(admin0_nom, admin1_nom, admin2_nom, admin3_nom)

## # A tibble: 703 x 4
##    admin0_nom admin1_nom admin2_nom admin3_nom          
##    <chr>      <chr>      <chr>      <chr>               
##  1 Mali       Kayes      Kayes      Bangassi            
##  2 Mali       Kayes      Kayes      Colimbine           
##  3 Mali       Kayes      Kayes      Diamou              
##  4 Mali       Kayes      Kayes      Djelebou            
##  5 Mali       Kayes      Kayes      Faleme              
##  6 Mali       Kayes      Kayes      Fegui               
##  7 Mali       Kayes      Kayes      Gory Gopela         
##  8 Mali       Kayes      Kayes      Goumera             
##  9 Mali       Kayes      Kayes      Guidimakan Keri Kaff
## 10 Mali       Kayes      Kayes      Hawa Dembaya        
## # ... with 693 more rows

L’on peut faire plus simple avec dplyr quand les variables recherchées se suivent.

adm3_pop_2009 %>% 
  select(admin0_nom:admin3_nom)

6.3.4 Exclusion

Comme avec R-base, la sélection peut aussi se faire sur la base de l’exclusion. Imaginez que l’on souhaite exclure les quatre premières variables.

# Avec R-base
adm3_pop_2009[, -c(1:4)]

## # A tibble: 703 x 5
##    admin3_nom           annee homme femme source
##    <chr>                <dbl> <dbl> <dbl> <chr> 
##  1 Bangassi              2009  6123  5974 RGPH  
##  2 Colimbine             2009  6144  6353 RGPH  
##  3 Diamou                2009  7115  7015 RGPH  
##  4 Djelebou              2009 11466 12091 RGPH  
##  5 Faleme                2009  5141  5017 RGPH  
##  6 Fegui                 2009  1999  1934 RGPH  
##  7 Gory Gopela           2009  3939  3927 RGPH  
##  8 Goumera               2009  1918  1903 RGPH  
##  9 Guidimakan Keri Kaff  2009  9798 10234 RGPH  
## 10 Hawa Dembaya          2009  3406  3445 RGPH  
## # ... with 693 more rows

# Avec dplyr
adm3_pop_2009 %>% 
  select(-c(1:4))

## # A tibble: 703 x 5
##    admin3_nom           annee homme femme source
##    <chr>                <dbl> <dbl> <dbl> <chr> 
##  1 Bangassi              2009  6123  5974 RGPH  
##  2 Colimbine             2009  6144  6353 RGPH  
##  3 Diamou                2009  7115  7015 RGPH  
##  4 Djelebou              2009 11466 12091 RGPH  
##  5 Faleme                2009  5141  5017 RGPH  
##  6 Fegui                 2009  1999  1934 RGPH  
##  7 Gory Gopela           2009  3939  3927 RGPH  
##  8 Goumera               2009  1918  1903 RGPH  
##  9 Guidimakan Keri Kaff  2009  9798 10234 RGPH  
## 10 Hawa Dembaya          2009  3406  3445 RGPH  
## # ... with 693 more rows
…
## [1] "HOMME" "FEMME"

## Avec dplyr
# Jeu de données de départ
adm3_pop_2009 %>% 
  # Sélection des variables d'intérêt
  select(homme, femme) %>% 
  # Modification des noms de variables
  rename(HOMME = homme, FEMME = femme)

## # A tibble: 703 x 2
##    HOMME FEMME
##    <dbl> <dbl>
##  1  6123  5974
##  2  6144  6353
##  3  7115  7015
##  4 11466 12091
##  5  5141  5017
##  6  1999  1934
##  7  3939  3927
##  8  1918  1903
##  9  9798 10234
## 10  3406  3445
## # ... with 693 more rows

Nous voyons qu’une telle opération qu’avec R-base requiert la création d’un objet intermédiaire tandis qu’avec dplyr elle s’insère tout simplement dans la séquence. Mais select peut elle-même prendre en charge la tâche de changement de noms.

# Jeu de données de départ
adm3_pop_2009 %>% 
  # Sélection des variables d'intérêt et changement de noms
  select(HOMME = homme, FEMME = femme)

## # A tibble: 703 x 2
##    HOMME FEMME
##    <dbl> <dbl>
##  1  6123  5974
##  2  6144  6353
##  3  7115  7015
##  4 11466 12091
##  5  5141  5017
##  6  1999  1934
##  7  3939  3927
##  8  1918  1903
##  9  9798 10234
## 10  3406  3445
## # ... with 693 more rows
…
Revenons à l’exploration de la supériorité numérique entre hommes et femmes, sujet que nous avons abordé dans le chapitre précédent. Supposons que nous souhaitions:

sélectionner les populations pour les hommes et les femmes pour chaque commune;

calculer un ratio femme/homme pour chaque commune.

## Avec R-base
# Sélection des variables d'intérêt
pop_df <- adm3_pop_2009[ , c("admin3_nom", "homme", "femme")]
# Création d'une nouvelle variable
pop_df$ratio <- pop_df$femme / pop_df$homme
# Aperçu
pop_df

## # A tibble: 703 x 4
##    admin3_nom           homme femme ratio
##    <chr>                <dbl> <dbl> <dbl>
##  1 Bangassi              6123  5974 0.976
##  2 Colimbine             6144  6353 1.03 
##  3 Diamou                7115  7015 0.986
##  4 Djelebou             11466 12091 1.05 
##  5 Faleme                5141  5017 0.976
##  6 Fegui                 1999  1934 0.967
##  7 Gory Gopela           3939  3927 0.997
##  8 Goumera               1918  1903 0.992
##  9 Guidimakan Keri Kaff  9798 10234 1.04 
## 10 Hawa Dembaya          3406  3445 1.01 
## # ... with 693 more rows

## Avec dplyr
  # Jeu de données de départ
adm3_pop_2009 %>% 
  # Sélection des variables d'intérêt
  select(admin3_nom, homme, femme) %>% 
  # Création d'une nouvelle variable
  mutate(ratio = homme/femme)

## # A tibble: 703 x 4
##    admin3_nom           homme femme ratio
##    <chr>                <dbl> <dbl> <dbl>
##  1 Bangassi              6123  5974 1.02 
##  2 Colimbine             6144  6353 0.967
##  3 Diamou                7115  7015 1.01 
##  4 Djelebou             11466 12091 0.948
##  5 Faleme                5141  5017 1.02 
##  6 Fegui                 1999  1934 1.03 
##  7 Gory Gopela           3939  3927 1.00 
##  8 Goumera               1918  1903 1.01 
##  9 Guidimakan Keri Kaff  9798 10234 0.957
## 10 Hawa Dembaya          3406  3445 0.989
## # ... with 693 more rows
…
